…
Y-axis: Proportion of times the null was rejected

X-axis: true value of mu

``` r
sim_results %>% 
   mutate(
    results = case_when(
      p.value < 0.05 ~ "rejected",
       p.value >= 0.05 ~ "not_rejected")) %>% 
  mutate(results = as.factor(results))
```

    ## # A tibble: 35,000 x 4
    ##       mu estimate p.value results     
    ##    <dbl>    <dbl>   <dbl> <fct>       
    ##  1     0    0.412  0.629  not_rejected
    ##  2     0    0.664  0.368  not_rejected
    ##  3     0    0.551  0.534  not_rejected
    ##  4     0    0.567  0.487  not_rejected
    ##  5     0   -1.65   0.0599 not_rejected
    ##  6     0    1.19   0.229  not_rejected
    ##  7     0    0.334  0.738  not_rejected
    ##  8     0   -1.19   0.209  not_rejected
    ##  9     0    0.122  0.887  not_rejected
    ## 10     0    0.684  0.472  not_rejected
    ## # … with 34,990 more rows
…
